Dominio: JBC321
Marca: Ford
Tipo: Automovil
Modelo: 2011
Kilometraje: 210000
Precio evaluado: 590000
Precio de venta: 640000
Estado: Disponible

--------------------------------------------
Dominio: AC123CA
Marca: Ford
Tipo: Utilitario
Modelo: 2015
Kilometraje: 80000
Precio evaluado: 850000
Precio de venta: 935000
Estado: Reservado

--------------------------------------------
